id,MeSH,DUI,tag,docType
2-s2.0-84925046534,"['Biomarkers, Tumor', 'Antineoplastic Agents']","['D014408', 'D000970']",relevant,publication
2-s2.0-84945156332,"['Biomarkers, Tumor', 'Antineoplastic Agents']","['D014408', 'D000970']",relevant,publication
2-s2.0-84959295107,"['Biomarkers, Tumor', 'Antineoplastic Agents']","['D014408', 'D000970']",relevant,publication
2-s2.0-84960929374,"['Biomarkers, Tumor', 'Antineoplastic Agents']","['D014408', 'D000970']",relevant,publication
2-s2.0-84960929374,Xenograft Model Antitumor Assays,D023041,uniquevocal,publication
2-s2.0-85002769330,"['Biomarkers, Tumor', 'Antineoplastic Agents', 'Neoplastic Stem Cells']","['D014408', 'D000970', 'D014411']",relevant,publication
2-s2.0-85019001115,"['Biomarkers, Tumor', 'Antineoplastic Agents']","['D014408', 'D000970']",relevant,publication
2-s2.0-85038425719,"['Biomarkers, Tumor', 'Neoplastic Stem Cells']","['D014408', 'D014411']",relevant,publication
2-s2.0-85041413926,"['Antineoplastic Agents', 'Neoplastic Stem Cells']","['D000970', 'D014411']",relevant,publication
2-s2.0-85052879292,"['Biomarkers, Tumor', 'Antineoplastic Agents']","['D014408', 'D000970']",relevant,publication
2-s2.0-85052879292,Neoplasm Staging,D009367,uniquevocal,publication
2-s2.0-85052937410,"['Antineoplastic Agents', 'Neoplastic Stem Cells']","['D000970', 'D014411']",relevant,publication
2-s2.0-85064233291,"['Antineoplastic Agents', 'Early Detection of Cancer']","['D000970', 'D055088']",relevant,publication
2-s2.0-85064233291,Neoplasm Staging,D009367,uniquevocal,publication
2-s2.0-85073571893,"['Biomarkers, Tumor', 'Circulating Tumor DNA']","['D014408', 'D000074141']",relevant,publication
2-s2.0-85077160072,"['Antineoplastic Agents', 'Neoplastic Stem Cells']","['D000970', 'D014411']",relevant,publication
2-s2.0-85078511457,"['Antineoplastic Agents', 'Neoplastic Stem Cells']","['D000970', 'D014411']",relevant,publication
2-s2.0-85079058832,"['Biomarkers, Tumor', 'Circulating Tumor DNA']","['D014408', 'D000074141']",relevant,publication
2-s2.0-85102027088,"['Biomarkers, Tumor', 'Antineoplastic Agents']","['D014408', 'D000970']",relevant,publication
2-s2.0-85106235694,"['Biomarkers, Tumor', 'Circulating Tumor DNA']","['D014408', 'D000074141']",relevant,publication
2-s2.0-85106235694,Neoplasm Staging,D009367,uniquevocal,publication
2-s2.0-85020707279,Xenograft Model Antitumor Assays,D023041,uniquevocal,publication
2-s2.0-85026782309,Xenograft Model Antitumor Assays,D023041,uniquevocal,publication
2-s2.0-85106910997,Neoplasm Staging,D009367,uniquevocal,publication
2-s2.0-84992458123,"Neoplastic Cells, Circulating",D009360,uniquevocal,publication
2-s2.0-84957957187,Neoplasm Staging,D009367,uniquevocal,publication
2-s2.0-85115000679,Neoplasm Staging,D009367,uniquevocal,publication
2-s2.0-84938748175,Neoplasm Staging,D009367,uniquevocal,publication
2-s2.0-84938739996,Neoplasm Staging,D009367,uniquevocal,publication
2-s2.0-84979732333,Neoplasm Staging,D009367,uniquevocal,publication
2-s2.0-85002662990,Neoplasm Grading,D060787,uniquevocal,publication
2-s2.0-85002662990,Neoplasm Staging,D009367,uniquevocal,publication
2-s2.0-84942257366,Neoplasm Grading,D060787,uniquevocal,publication
2-s2.0-84942257366,Neoplasm Staging,D009367,uniquevocal,publication
2-s2.0-84965031390,Neoplasm Staging,D009367,uniquevocal,publication
2-s2.0-84969793416,Neoplasm Staging,D009367,uniquevocal,publication
2-s2.0-84973636808,Neoplasm Staging,D009367,uniquevocal,publication
2-s2.0-85023196096,Neoplasm Staging,D009367,uniquevocal,publication
2-s2.0-85053455460,Neoplasm Staging,D009367,uniquevocal,publication
2-s2.0-85053269432,Neoplasm Staging,D009367,uniquevocal,publication
2-s2.0-85053612871,Neoplasm Grading,D060787,uniquevocal,publication
2-s2.0-85053612871,Neoplasm Staging,D009367,uniquevocal,publication
2-s2.0-85071885198,Neoplasm Staging,D009367,uniquevocal,publication
2-s2.0-85061728007,Neoplasm Staging,D009367,uniquevocal,publication
2-s2.0-84957597252,Neoplasm Staging,D009367,uniquevocal,publication
2-s2.0-85091691785,Neoplasm Staging,D009367,uniquevocal,publication
2-s2.0-84930443560,Neoplasm Grading,D060787,uniquevocal,publication
2-s2.0-84938998205,Neoplasm Staging,D009367,uniquevocal,publication
2-s2.0-85019264288,Neoplasm Staging,D009367,uniquevocal,publication
2-s2.0-85041315424,Neoplasm Staging,D009367,uniquevocal,publication
2-s2.0-85102022020,Neoplasm Staging,D009367,uniquevocal,publication
2-s2.0-85052150410,Neoplasm Staging,D009367,uniquevocal,publication
2-s2.0-85066071425,Neoplasm Staging,D009367,uniquevocal,publication
2-s2.0-85054400972,Neoplasm Staging,D009367,uniquevocal,publication
2-s2.0-85058775338,Neoplasm Grading,D060787,uniquevocal,publication
2-s2.0-85020747132,Cancer Vaccines,D019496,uniquevocal,publication
2-s2.0-85085664396,Neoplasm Staging,D009367,uniquevocal,publication
2-s2.0-85006106524,Neoplasm Grading,D060787,uniquevocal,publication
2-s2.0-85063758462,Neoplasm Grading,D060787,uniquevocal,publication
2-s2.0-85065523299,Neoplasm Grading,D060787,uniquevocal,publication
2-s2.0-85097672902,Neoplasm Staging,D009367,uniquevocal,publication
2-s2.0-85099198494,Neoplasm Staging,D009367,uniquevocal,publication
2-s2.0-84992187391,Neoplasm Staging,D009367,uniquevocal,publication
2-s2.0-85019754251,Cancer Vaccines,D019496,uniquevocal,publication
2-s2.0-85045642639,Neoplasm Staging,D009367,uniquevocal,publication
2-s2.0-85007049088,"Neoplastic Cells, Circulating",D009360,uniquevocal,publication
2-s2.0-85029223442,Neoplasm Grading,D060787,uniquevocal,publication
2-s2.0-85029223442,Neoplasm Staging,D009367,uniquevocal,publication
2-s2.0-85062224251,Xenograft Model Antitumor Assays,D023041,uniquevocal,publication
2-s2.0-85049334176,"Neoplastic Cells, Circulating",D009360,uniquevocal,publication
2-s2.0-84920839603,Xenograft Model Antitumor Assays,D023041,uniquevocal,publication
2-s2.0-85008174143,Neoplasm Staging,D009367,uniquevocal,publication
2-s2.0-85064322833,Neoplasm Staging,D009367,uniquevocal,publication
2-s2.0-85072717705,Neoplasm Grading,D060787,uniquevocal,publication
2-s2.0-84994155858,Neoplasm Grading,D060787,uniquevocal,publication
2-s2.0-84994155858,Neoplasm Staging,D009367,uniquevocal,publication
2-s2.0-85075511712,Neoplasm Grading,D060787,uniquevocal,publication
2-s2.0-85107088288,Neoplasm Grading,D060787,uniquevocal,publication
2-s2.0-85085350959,Neoplasm Staging,D009367,uniquevocal,publication
2-s2.0-84938980063,Neoplasm Staging,D009367,uniquevocal,publication
2-s2.0-84951291004,Neoplasm Staging,D009367,uniquevocal,publication
2-s2.0-84962182200,Neoplasm Staging,D009367,uniquevocal,publication
2-s2.0-84976502673,Neoplasm Staging,D009367,uniquevocal,publication
2-s2.0-84994268334,Neoplasm Staging,D009367,uniquevocal,publication
2-s2.0-85020501724,Neoplasm Staging,D009367,uniquevocal,publication
2-s2.0-85100105819,Neoplasm Staging,D009367,uniquevocal,publication
2-s2.0-85105669018,Neoplasm Staging,D009367,uniquevocal,publication
2-s2.0-85102368493,Neoplasm Grading,D060787,uniquevocal,publication
2-s2.0-85037724446,Neoplasm Staging,D009367,uniquevocal,publication
2-s2.0-85051209626,Xenograft Model Antitumor Assays,D023041,uniquevocal,publication
2-s2.0-85047849617,Neoplasm Grading,D060787,uniquevocal,publication
2-s2.0-85047849617,Neoplasm Staging,D009367,uniquevocal,publication
2-s2.0-85057781678,Neoplasm Grading,D060787,uniquevocal,publication
2-s2.0-85057781678,Neoplasm Staging,D009367,uniquevocal,publication
2-s2.0-85086161395,Xenograft Model Antitumor Assays,D023041,uniquevocal,publication
2-s2.0-85100478920,"Neoplastic Cells, Circulating",D009360,uniquevocal,publication
2-s2.0-84969654500,Neoplasm Staging,D009367,uniquevocal,publication
2-s2.0-85094933243,Neoplasm Staging,D009367,uniquevocal,publication
2-s2.0-85021298250,Neoplasm Staging,D009367,uniquevocal,publication
2-s2.0-84942913597,Neoplasm Staging,D009367,uniquevocal,publication
2-s2.0-84994032179,Neoplasm Staging,D009367,uniquevocal,publication
2-s2.0-85026785920,Neoplasm Staging,D009367,uniquevocal,publication
2-s2.0-85049839139,Neoplasm Staging,D009367,uniquevocal,publication
2-s2.0-85084409296,Neoplasm Staging,D009367,uniquevocal,publication
2-s2.0-84938563472,Neoplasm Staging,D009367,uniquevocal,publication
2-s2.0-85042624793,Neoplasm Staging,D009367,uniquevocal,publication
2-s2.0-84938977841,Neoplasm Staging,D009367,uniquevocal,publication
2-s2.0-85018126594,Neoplasm Staging,D009367,uniquevocal,publication
2-s2.0-85002410798,Neoplasm Grading,D060787,uniquevocal,publication
2-s2.0-85067063871,Neoplasm Staging,D009367,uniquevocal,publication
2-s2.0-85102037287,Neoplasm Staging,D009367,uniquevocal,publication
2-s2.0-85100008316,Neoplasm Staging,D009367,uniquevocal,publication
2-s2.0-84994275513,Xenograft Model Antitumor Assays,D023041,uniquevocal,publication
2-s2.0-84981303326,Neoplasm Grading,D060787,uniquevocal,publication
2-s2.0-85034768823,Neoplasm Grading,D060787,uniquevocal,publication
2-s2.0-85017445786,Neoplasm Staging,D009367,uniquevocal,publication
2-s2.0-85038235700,Neoplasm Staging,D009367,uniquevocal,publication
2-s2.0-85057781174,Neoplasm Staging,D009367,uniquevocal,publication
2-s2.0-85058416611,Neoplasm Staging,D009367,uniquevocal,publication
2-s2.0-85096696202,Neoplasm Staging,D009367,uniquevocal,publication
2-s2.0-84922537745,"Neoplastic Cells, Circulating",D009360,uniquevocal,publication
2-s2.0-85054740553,Neoplasm Grading,D060787,uniquevocal,publication
2-s2.0-85054740553,Neoplasm Staging,D009367,uniquevocal,publication
2-s2.0-84957845109,Neoplasm Grading,D060787,uniquevocal,publication
2-s2.0-84957845109,Neoplasm Staging,D009367,uniquevocal,publication
2-s2.0-85039173422,Neoplasm Staging,D009367,uniquevocal,publication
2-s2.0-85045537852,Xenograft Model Antitumor Assays,D023041,uniquevocal,publication
2-s2.0-85064174675,Neoplasm Staging,D009367,uniquevocal,publication
2-s2.0-85079714883,Neoplasm Grading,D060787,uniquevocal,publication
2-s2.0-85079714883,Neoplasm Staging,D009367,uniquevocal,publication
2-s2.0-84938872454,Neoplasm Staging,D009367,uniquevocal,publication
2-s2.0-84981499561,Neoplasm Grading,D060787,uniquevocal,publication
2-s2.0-85033382530,Neoplasm Staging,D009367,uniquevocal,publication
2-s2.0-85041064923,Neoplasm Grading,D060787,uniquevocal,publication
2-s2.0-85017129837,Neoplasm Staging,D009367,uniquevocal,publication
2-s2.0-85034662640,Neoplasm Grading,D060787,uniquevocal,publication
2-s2.0-85034662640,Neoplasm Staging,D009367,uniquevocal,publication
2-s2.0-85055087829,Neoplasm Grading,D060787,uniquevocal,publication
2-s2.0-84991251192,Neoplasm Staging,D009367,uniquevocal,publication
2-s2.0-84995388324,Neoplasm Staging,D009367,uniquevocal,publication
2-s2.0-85075852002,Neoplasm Staging,D009367,uniquevocal,publication
2-s2.0-85091197336,Neoplasm Staging,D009367,uniquevocal,publication
2-s2.0-85087801411,Neoplasm Grading,D060787,uniquevocal,publication
2-s2.0-85087801411,Neoplasm Staging,D009367,uniquevocal,publication
2-s2.0-85103392953,Neoplasm Grading,D060787,uniquevocal,publication
2-s2.0-85049746721,Neoplasm Grading,D060787,uniquevocal,publication
2-s2.0-85070809964,Neoplasm Staging,D009367,uniquevocal,publication
2-s2.0-85075351953,Neoplasm Staging,D009367,uniquevocal,publication
2-s2.0-84947435095,Neoplasm Staging,D009367,uniquevocal,publication
2-s2.0-85009874586,Neoplasm Staging,D009367,uniquevocal,publication
2-s2.0-85045022030,Neoplasm Staging,D009367,uniquevocal,publication
2-s2.0-85008173923,Neoplasm Staging,D009367,uniquevocal,publication
2-s2.0-85044474991,Neoplasm Staging,D009367,uniquevocal,publication
2-s2.0-85071565916,Neoplasm Staging,D009367,uniquevocal,publication
2-s2.0-85083862832,Neoplasm Staging,D009367,uniquevocal,publication
2-s2.0-84932149403,Neoplasm Staging,D009367,uniquevocal,publication
2-s2.0-85032816744,Neoplasm Staging,D009367,uniquevocal,publication
2-s2.0-84928651047,Neoplasm Staging,D009367,uniquevocal,publication
2-s2.0-84951287814,Neoplasm Grading,D060787,uniquevocal,publication
2-s2.0-85016946858,Neoplasm Staging,D009367,uniquevocal,publication
2-s2.0-85072190019,Neoplasm Grading,D060787,uniquevocal,publication
2-s2.0-85072190019,Neoplasm Staging,D009367,uniquevocal,publication
2-s2.0-85105443930,Neoplasm Grading,D060787,uniquevocal,publication
2-s2.0-85101868749,Tumor-Associated Macrophages,D000084582,uniquevocal,publication
2-s2.0-85049611461,Neoplasm Grading,D060787,uniquevocal,publication
2-s2.0-84921047170,Neoplasm Staging,D009367,uniquevocal,publication
2-s2.0-84954103324,Neoplasm Staging,D009367,uniquevocal,publication
2-s2.0-85019073356,Neoplasm Staging,D009367,uniquevocal,publication
2-s2.0-85030527025,Xenograft Model Antitumor Assays,D023041,uniquevocal,publication
2-s2.0-85054377478,Neoplasm Staging,D009367,uniquevocal,publication
2-s2.0-85054214404,Neoplasm Staging,D009367,uniquevocal,publication
2-s2.0-85052604766,Neoplasm Grading,D060787,uniquevocal,publication
2-s2.0-85052604766,Neoplasm Staging,D009367,uniquevocal,publication
2-s2.0-85082184040,Cancer Vaccines,D019496,uniquevocal,publication
2-s2.0-85082184040,Neoplasm Staging,D009367,uniquevocal,publication
2-s2.0-85092257762,Neoplasm Staging,D009367,uniquevocal,publication
2-s2.0-85075220080,Neoplasm Staging,D009367,uniquevocal,publication
2-s2.0-85054340723,Neoplasm Staging,D009367,uniquevocal,publication
2-s2.0-85043302056,Neoplasm Grading,D060787,uniquevocal,publication
2-s2.0-84955592678,Neoplasm Staging,D009367,uniquevocal,publication
2-s2.0-85037338324,Neoplasm Staging,D009367,uniquevocal,publication
2-s2.0-84952772306,Neoplasm Grading,D060787,uniquevocal,publication
2-s2.0-84952772306,Neoplasm Staging,D009367,uniquevocal,publication
2-s2.0-84978532202,Cancer Vaccines,D019496,uniquevocal,publication
2-s2.0-84928825347,Neoplasm Staging,D009367,uniquevocal,publication
2-s2.0-85103114276,Neoplasm Grading,D060787,uniquevocal,publication
2-s2.0-84942984980,Neoplasm Grading,D060787,uniquevocal,publication
2-s2.0-84942984980,Neoplasm Staging,D009367,uniquevocal,publication
2-s2.0-84983109598,Neoplasm Staging,D009367,uniquevocal,publication
2-s2.0-85008193429,Neoplasm Staging,D009367,uniquevocal,publication
2-s2.0-85018192017,Neoplasm Grading,D060787,uniquevocal,publication
2-s2.0-85028639719,Neoplasm Staging,D009367,uniquevocal,publication
2-s2.0-85012892256,Neoplastic Processes,D009385,uniquevocal,publication
2-s2.0-85015778621,Neoplasm Staging,D009367,uniquevocal,publication
2-s2.0-85020107403,Neoplasm Grading,D060787,uniquevocal,publication
2-s2.0-85034088171,Neoplasm Staging,D009367,uniquevocal,publication
2-s2.0-85040640169,Neoplasm Staging,D009367,uniquevocal,publication
2-s2.0-85045340912,Neoplasm Staging,D009367,uniquevocal,publication
2-s2.0-85048530530,Neoplasm Grading,D060787,uniquevocal,publication
2-s2.0-85066237923,Neoplasm Staging,D009367,uniquevocal,publication
2-s2.0-85068031273,Neoplasm Grading,D060787,uniquevocal,publication
2-s2.0-85068031273,Neoplasm Staging,D009367,uniquevocal,publication
2-s2.0-84930273105,Neoplasm Staging,D009367,uniquevocal,publication
2-s2.0-84940963671,Neoplasm Grading,D060787,uniquevocal,publication
2-s2.0-84940963671,Neoplasm Staging,D009367,uniquevocal,publication
2-s2.0-85028760998,Neoplasm Grading,D060787,uniquevocal,publication
2-s2.0-85028760998,Neoplasm Staging,D009367,uniquevocal,publication
2-s2.0-85063192322,Neoplasm Staging,D009367,uniquevocal,publication
2-s2.0-85043381126,Neoplasm Staging,D009367,uniquevocal,publication
2-s2.0-84992462851,Neoplasm Staging,D009367,uniquevocal,publication
2-s2.0-85010217903,Neoplasm Staging,D009367,uniquevocal,publication
2-s2.0-85027563216,Neoplasm Staging,D009367,uniquevocal,publication
2-s2.0-85048699907,Neoplasm Staging,D009367,uniquevocal,publication
2-s2.0-84925674761,Neoplasm Grading,D060787,uniquevocal,publication
2-s2.0-84975122035,Neoplasm Grading,D060787,uniquevocal,publication
2-s2.0-84975122035,Neoplasm Staging,D009367,uniquevocal,publication
2-s2.0-85079130302,Neoplasm Grading,D060787,uniquevocal,publication
2-s2.0-85084238820,"Neoplastic Cells, Circulating",D009360,uniquevocal,publication
2-s2.0-84960909823,Neoplasm Grading,D060787,uniquevocal,publication
2-s2.0-85040795245,Neoplasm Grading,D060787,uniquevocal,publication
2-s2.0-85044866767,Neoplasm Staging,D009367,uniquevocal,publication
2-s2.0-85085114662,Neoplasm Staging,D009367,uniquevocal,publication
2-s2.0-85030653038,Neoplasm Staging,D009367,uniquevocal,publication
2-s2.0-85008330507,Xenograft Model Antitumor Assays,D023041,uniquevocal,publication
2-s2.0-84938997407,Neoplasm Staging,D009367,uniquevocal,publication
2-s2.0-85081721509,Neoplasm Staging,D009367,uniquevocal,publication
2-s2.0-85112124813,Neoplasm Staging,D009367,uniquevocal,publication
2-s2.0-84957578064,Neoplasm Staging,D009367,uniquevocal,publication
2-s2.0-85039555213,Neoplasm Staging,D009367,uniquevocal,publication
2-s2.0-84939212050,Neoplasm Staging,D009367,uniquevocal,publication
2-s2.0-84959090335,Neoplasm Staging,D009367,uniquevocal,publication
2-s2.0-84959149043,Neoplasm Grading,D060787,uniquevocal,publication
2-s2.0-84959149043,Neoplasm Staging,D009367,uniquevocal,publication
2-s2.0-85103887047,Neoplasm Staging,D009367,uniquevocal,publication
2-s2.0-85050078736,Neoplasm Staging,D009367,uniquevocal,publication
2-s2.0-84920715458,"Neoplastic Cells, Circulating",D009360,uniquevocal,publication
2-s2.0-84926406700,Neoplasm Grading,D060787,uniquevocal,publication
2-s2.0-84943364188,"Neoplastic Cells, Circulating",D009360,uniquevocal,publication
2-s2.0-84969542870,Neoplasm Staging,D009367,uniquevocal,publication
2-s2.0-85064008215,Xenograft Model Antitumor Assays,D023041,uniquevocal,publication
AC19/00141,Neoplasm Staging,D009367,uniquevocal,project
